{
  "appenders": [
    {
      "type": "console"
    },
    {
      "type": "file",
      "filename": "logs/middleware.log",
      "category": "middleware",
      "maxLogSize": 20480,
      "backups": 10
    },
    {
      "type": "file",
      "filename": "logs/access.log",
      "category": "access",
      "maxLogSize": 20480,
      "backups": 3
    }
  ]
}